{
    "variables": {
        "ssh_user": "vagrant",
        "ssh_pass": "vagrant"
    },
    "builders": [
        {
            "type": "virtualbox-iso",
            "boot_wait": "1m",
            "boot_command": [
                "stop sshd<enter>",
                "fdisk /dev/sda<enter>",
                "n",
                "<enter><enter><enter><enter><enter>",
                "a<enter>",
                "1<enter>",
                "w<enter>",
                "<wait>",
                "mkfs.ext4 -j -L nixos /dev/sda1<enter><wait5>",
                "mount LABEL=nixos /mnt<enter><wait>",
                "nixos-generate-config --root /mnt<enter><wait>",
                "curl http://{{ .HTTPIP }}:{{ .HTTPPort }}/configuration.nix > /mnt/etc/nixos/configuration.nix<enter><wait>",
                "curl http://{{ .HTTPIP }}:{{ .HTTPPort }}/guest-virtualbox.nix > /mnt/etc/nixos/guest.nix<enter><wait>",
                "curl http://{{ .HTTPIP }}:{{ .HTTPPort }}/users-vagrant.nix > /mnt/etc/nixos/users.nix<enter><wait>",
                "curl http://{{ .HTTPIP }}:{{ .HTTPPort }}/vagrant.nix > /mnt/etc/nixos/vagrant.nix<enter><wait>",
                "nixos-install && reboot<enter>"
            ],
            "guest_additions_mode": "disable",
            "guest_os_type": "Linux_64",
            "http_directory": "nixos",
            "iso_checksum": "9c70c96eca2a8ccc9525b52590c28f10bcf0a266cc7b4bad9828e19efffb86fd",
            "iso_checksum_type": "sha256",
            "iso_url": "https://d3g5gsiof5omrk.cloudfront.net/nixos/17.09/nixos-17.09.3023.c882c4dd55e/nixos-minimal-17.09.3023.c882c4dd55e-x86_64-linux.iso",
            // "shutdown_command": "echo {{user `ssh_pass`}} | sudo -S shutdown -P now",
            "shutdown_command": "sudo shutdown -h now",
            "ssh_username": "vagrant",
            "ssh_password": "vagrant",
            "ssh_wait_timeout": "20m",
            "virtualbox_version_file": ".vbox_version",
            "vboxmanage": [
                [
                    "modifyvm",
                    "{{.Name}}",
                    "--memory",
                    "1024"
                ],
                [
                    "modifyvm",
                    "{{.Name}}",
                    "--cpus",
                    "2"
                ]
            ]
        }
    ],
    "provisioners": [
        {
            "type": "shell",
            "execute_command": "echo 'vagrant' | sudo -S -- sh -c '{{ .Vars }} {{ .Path }}'",
            "script": "scripts/postinstall.sh"
        }
    ],
    "post-processors": [
        {
            "type": "vagrant",
            "output": "nixos-14.02-x86_64-{{.Provider}}.box"
        }
    ]
}